{
 "custom_fields": [
  {
   "_assign": null, 
   "_comments": null, 
   "_liked_by": null, 
   "_user_tags": null, 
   "allow_on_submit": 0, 
   "bold": 0, 
   "collapsible": 0, 
   "collapsible_depends_on": null, 
   "columns": 0, 
   "creation": "2018-01-22 16:33:48.067729", 
   "default": null, 
   "depends_on": null, 
   "description": null, 
   "docstatus": 0, 
   "dt": "Sales Invoice One", 
   "fieldname": "ahorro_factura", 
   "fieldtype": "Currency", 
   "hidden": 0, 
   "idx": 25, 
   "ignore_user_permissions": 0, 
   "ignore_xss_filter": 0, 
   "in_global_search": 0, 
   "in_list_view": 0, 
   "in_standard_filter": 0, 
   "insert_after": "total", 
   "label": "Ahorro en esta Factura:", 
   "modified": "2018-01-22 16:33:48.067729", 
   "modified_by": "Administrator", 
   "name": "Sales Invoice One-ahorro_factura", 
   "no_copy": 0, 
   "options": null, 
   "owner": "Administrator", 
   "parent": null, 
   "parentfield": null, 
   "parenttype": null, 
   "permlevel": 0, 
   "precision": "2", 
   "print_hide": 0, 
   "print_hide_if_no_value": 0, 
   "print_width": null, 
   "read_only": 1, 
   "report_hide": 0, 
   "reqd": 0, 
   "search_index": 0, 
   "unique": 0, 
   "width": null
  }, 
  {
   "_assign": null, 
   "_comments": null, 
   "_liked_by": null, 
   "_user_tags": null, 
   "allow_on_submit": 0, 
   "bold": 0, 
   "collapsible": 0, 
   "collapsible_depends_on": null, 
   "columns": 0, 
   "creation": "2018-01-10 18:17:40.485208", 
   "default": null, 
   "depends_on": null, 
   "description": null, 
   "docstatus": 0, 
   "dt": "Sales Invoice One", 
   "fieldname": "cod_item", 
   "fieldtype": "Data", 
   "hidden": 0, 
   "idx": 18, 
   "ignore_user_permissions": 0, 
   "ignore_xss_filter": 0, 
   "in_global_search": 0, 
   "in_list_view": 0, 
   "in_standard_filter": 0, 
   "insert_after": "items_section", 
   "label": "Codigo Item", 
   "modified": "2018-01-10 18:17:40.485208", 
   "modified_by": "Administrator", 
   "name": "Sales Invoice One-cod_item", 
   "no_copy": 0, 
   "options": null, 
   "owner": "Administrator", 
   "parent": null, 
   "parentfield": null, 
   "parenttype": null, 
   "permlevel": 0, 
   "precision": "", 
   "print_hide": 0, 
   "print_hide_if_no_value": 0, 
   "print_width": null, 
   "read_only": 0, 
   "report_hide": 0, 
   "reqd": 0, 
   "search_index": 0, 
   "unique": 0, 
   "width": null
  }, 
  {
   "_assign": null, 
   "_comments": null, 
   "_liked_by": null, 
   "_user_tags": null, 
   "allow_on_submit": 0, 
   "bold": 0, 
   "collapsible": 0, 
   "collapsible_depends_on": null, 
   "columns": 0, 
   "creation": "2018-01-10 16:51:49.956467", 
   "default": null, 
   "depends_on": null, 
   "description": null, 
   "docstatus": 0, 
   "dt": "Sales Invoice One", 
   "fieldname": "num_telefono", 
   "fieldtype": "Data", 
   "hidden": 0, 
   "idx": 8, 
   "ignore_user_permissions": 0, 
   "ignore_xss_filter": 0, 
   "in_global_search": 0, 
   "in_list_view": 0, 
   "in_standard_filter": 0, 
   "insert_after": "correo_cliente", 
   "label": "num_telefono", 
   "modified": "2018-01-10 16:51:49.956467", 
   "modified_by": "Administrator", 
   "name": "Sales Invoice One-num_telefono", 
   "no_copy": 0, 
   "options": null, 
   "owner": "Administrator", 
   "parent": null, 
   "parentfield": null, 
   "parenttype": null, 
   "permlevel": 0, 
   "precision": "", 
   "print_hide": 0, 
   "print_hide_if_no_value": 0, 
   "print_width": null, 
   "read_only": 0, 
   "report_hide": 0, 
   "reqd": 0, 
   "search_index": 0, 
   "unique": 0, 
   "width": null
  }, 
  {
   "_assign": null, 
   "_comments": null, 
   "_liked_by": null, 
   "_user_tags": null, 
   "allow_on_submit": 1, 
   "bold": 0, 
   "collapsible": 0, 
   "collapsible_depends_on": null, 
   "columns": 0, 
   "creation": "2017-11-20 15:51:04.107637", 
   "default": null, 
   "depends_on": null, 
   "description": null, 
   "docstatus": 0, 
   "dt": "Sales Invoice One", 
   "fieldname": "ha_generado_nota_de_credito", 
   "fieldtype": "Check", 
   "hidden": 0, 
   "idx": 45, 
   "ignore_user_permissions": 0, 
   "ignore_xss_filter": 0, 
   "in_global_search": 0, 
   "in_list_view": 0, 
   "in_standard_filter": 0, 
   "insert_after": "barras", 
   "label": "Ha generado nota de Credito", 
   "modified": "2017-11-20 15:51:04.107637", 
   "modified_by": "Administrator", 
   "name": "Sales Invoice One-ha_generado_nota_de_credito", 
   "no_copy": 0, 
   "options": null, 
   "owner": "Administrator", 
   "parent": null, 
   "parentfield": null, 
   "parenttype": null, 
   "permlevel": 0, 
   "precision": "", 
   "print_hide": 1, 
   "print_hide_if_no_value": 0, 
   "print_width": null, 
   "read_only": 1, 
   "report_hide": 0, 
   "reqd": 0, 
   "search_index": 0, 
   "unique": 0, 
   "width": null
  }, 
  {
   "_assign": null, 
   "_comments": null, 
   "_liked_by": null, 
   "_user_tags": null, 
   "allow_on_submit": 1, 
   "bold": 0, 
   "collapsible": 0, 
   "collapsible_depends_on": null, 
   "columns": 0, 
   "creation": "2017-09-26 12:54:34.030500", 
   "default": null, 
   "depends_on": null, 
   "description": null, 
   "docstatus": 0, 
   "dt": "Sales Invoice One", 
   "fieldname": "barras", 
   "fieldtype": "Attach Image", 
   "hidden": 0, 
   "idx": 44, 
   "ignore_user_permissions": 0, 
   "ignore_xss_filter": 0, 
   "in_global_search": 0, 
   "in_list_view": 0, 
   "in_standard_filter": 0, 
   "insert_after": "amended_from", 
   "label": "Barras", 
   "modified": "2017-09-26 12:54:34.030500", 
   "modified_by": "Administrator", 
   "name": "Sales Invoice One-barras", 
   "no_copy": 0, 
   "options": null, 
   "owner": "Administrator", 
   "parent": null, 
   "parentfield": null, 
   "parenttype": null, 
   "permlevel": 0, 
   "precision": "", 
   "print_hide": 0, 
   "print_hide_if_no_value": 0, 
   "print_width": null, 
   "read_only": 1, 
   "report_hide": 0, 
   "reqd": 0, 
   "search_index": 0, 
   "unique": 0, 
   "width": null
  }, 
  {
   "_assign": null, 
   "_comments": null, 
   "_liked_by": null, 
   "_user_tags": null, 
   "allow_on_submit": 0, 
   "bold": 0, 
   "collapsible": 0, 
   "collapsible_depends_on": null, 
   "columns": 0, 
   "creation": "2017-08-29 09:37:12.310503", 
   "default": null, 
   "depends_on": null, 
   "description": null, 
   "docstatus": 0, 
   "dt": "Sales Invoice One", 
   "fieldname": "electronic_invoice", 
   "fieldtype": "Section Break", 
   "hidden": 0, 
   "idx": 36, 
   "ignore_user_permissions": 0, 
   "ignore_xss_filter": 0, 
   "in_global_search": 0, 
   "in_list_view": 0, 
   "in_standard_filter": 0, 
   "insert_after": "status", 
   "label": "Facturacion Electronica", 
   "modified": "2017-08-29 09:37:12.310503", 
   "modified_by": "Administrator", 
   "name": "Sales Invoice One-electronic_invoice", 
   "no_copy": 0, 
   "options": null, 
   "owner": "Administrator", 
   "parent": null, 
   "parentfield": null, 
   "parenttype": null, 
   "permlevel": 0, 
   "precision": "", 
   "print_hide": 0, 
   "print_hide_if_no_value": 0, 
   "print_width": null, 
   "read_only": 0, 
   "report_hide": 0, 
   "reqd": 0, 
   "search_index": 0, 
   "unique": 0, 
   "width": null
  }, 
  {
   "_assign": null, 
   "_comments": null, 
   "_liked_by": null, 
   "_user_tags": null, 
   "allow_on_submit": 1, 
   "bold": 0, 
   "collapsible": 0, 
   "collapsible_depends_on": null, 
   "columns": 0, 
   "creation": "2017-08-10 09:46:45.601478", 
   "default": null, 
   "depends_on": null, 
   "description": null, 
   "docstatus": 0, 
   "dt": "Sales Invoice One", 
   "fieldname": "mensaje", 
   "fieldtype": "Data", 
   "hidden": 0, 
   "idx": 42, 
   "ignore_user_permissions": 0, 
   "ignore_xss_filter": 0, 
   "in_global_search": 0, 
   "in_list_view": 0, 
   "in_standard_filter": 0, 
   "insert_after": "estado_sri", 
   "label": "Mensaje", 
   "modified": "2017-08-10 09:46:45.601478", 
   "modified_by": "Administrator", 
   "name": "Sales Invoice One-mensaje", 
   "no_copy": 0, 
   "options": null, 
   "owner": "Administrator", 
   "parent": null, 
   "parentfield": null, 
   "parenttype": null, 
   "permlevel": 0, 
   "precision": "", 
   "print_hide": 0, 
   "print_hide_if_no_value": 0, 
   "print_width": null, 
   "read_only": 1, 
   "report_hide": 0, 
   "reqd": 0, 
   "search_index": 0, 
   "unique": 0, 
   "width": null
  }, 
  {
   "_assign": null, 
   "_comments": null, 
   "_liked_by": null, 
   "_user_tags": null, 
   "allow_on_submit": 1, 
   "bold": 0, 
   "collapsible": 0, 
   "collapsible_depends_on": null, 
   "columns": 0, 
   "creation": "2017-08-10 09:46:45.492074", 
   "default": null, 
   "depends_on": null, 
   "description": null, 
   "docstatus": 0, 
   "dt": "Sales Invoice One", 
   "fieldname": "estado_sri", 
   "fieldtype": "Data", 
   "hidden": 0, 
   "idx": 41, 
   "ignore_user_permissions": 0, 
   "ignore_xss_filter": 0, 
   "in_global_search": 0, 
   "in_list_view": 0, 
   "in_standard_filter": 0, 
   "insert_after": "path_pdf", 
   "label": "Estado SRI", 
   "modified": "2017-08-10 09:46:45.492074", 
   "modified_by": "Administrator", 
   "name": "Sales Invoice One-estado_sri", 
   "no_copy": 0, 
   "options": null, 
   "owner": "Administrator", 
   "parent": null, 
   "parentfield": null, 
   "parenttype": null, 
   "permlevel": 0, 
   "precision": "", 
   "print_hide": 0, 
   "print_hide_if_no_value": 0, 
   "print_width": null, 
   "read_only": 1, 
   "report_hide": 0, 
   "reqd": 0, 
   "search_index": 0, 
   "unique": 0, 
   "width": null
  }, 
  {
   "_assign": null, 
   "_comments": null, 
   "_liked_by": null, 
   "_user_tags": null, 
   "allow_on_submit": 1, 
   "bold": 0, 
   "collapsible": 0, 
   "collapsible_depends_on": null, 
   "columns": 0, 
   "creation": "2017-08-10 09:46:20.281430", 
   "default": null, 
   "depends_on": null, 
   "description": null, 
   "docstatus": 0, 
   "dt": "Sales Invoice One", 
   "fieldname": "path_pdf", 
   "fieldtype": "Data", 
   "hidden": 1, 
   "idx": 40, 
   "ignore_user_permissions": 0, 
   "ignore_xss_filter": 0, 
   "in_global_search": 0, 
   "in_list_view": 0, 
   "in_standard_filter": 0, 
   "insert_after": "path_xml", 
   "label": "Path PDF", 
   "modified": "2017-08-10 09:46:20.281430", 
   "modified_by": "Administrator", 
   "name": "Sales Invoice One-path_pdf", 
   "no_copy": 0, 
   "options": null, 
   "owner": "Administrator", 
   "parent": null, 
   "parentfield": null, 
   "parenttype": null, 
   "permlevel": 0, 
   "precision": "", 
   "print_hide": 0, 
   "print_hide_if_no_value": 0, 
   "print_width": null, 
   "read_only": 1, 
   "report_hide": 0, 
   "reqd": 0, 
   "search_index": 0, 
   "unique": 0, 
   "width": null
  }, 
  {
   "_assign": null, 
   "_comments": null, 
   "_liked_by": null, 
   "_user_tags": null, 
   "allow_on_submit": 1, 
   "bold": 0, 
   "collapsible": 0, 
   "collapsible_depends_on": null, 
   "columns": 0, 
   "creation": "2017-08-10 09:46:20.196218", 
   "default": null, 
   "depends_on": null, 
   "description": null, 
   "docstatus": 0, 
   "dt": "Sales Invoice One", 
   "fieldname": "path_xml", 
   "fieldtype": "Data", 
   "hidden": 1, 
   "idx": 39, 
   "ignore_user_permissions": 0, 
   "ignore_xss_filter": 0, 
   "in_global_search": 0, 
   "in_list_view": 0, 
   "in_standard_filter": 0, 
   "insert_after": "numero_autorizacion", 
   "label": "Path XML", 
   "modified": "2017-08-10 09:46:20.196218", 
   "modified_by": "Administrator", 
   "name": "Sales Invoice One-path_xml", 
   "no_copy": 0, 
   "options": null, 
   "owner": "Administrator", 
   "parent": null, 
   "parentfield": null, 
   "parenttype": null, 
   "permlevel": 0, 
   "precision": "", 
   "print_hide": 0, 
   "print_hide_if_no_value": 0, 
   "print_width": null, 
   "read_only": 1, 
   "report_hide": 0, 
   "reqd": 0, 
   "search_index": 0, 
   "unique": 0, 
   "width": null
  }, 
  {
   "_assign": null, 
   "_comments": null, 
   "_liked_by": null, 
   "_user_tags": null, 
   "allow_on_submit": 1, 
   "bold": 0, 
   "collapsible": 0, 
   "collapsible_depends_on": null, 
   "columns": 0, 
   "creation": "2017-08-10 09:46:20.097707", 
   "default": null, 
   "depends_on": null, 
   "description": null, 
   "docstatus": 0, 
   "dt": "Sales Invoice One", 
   "fieldname": "numero_autorizacion", 
   "fieldtype": "Data", 
   "hidden": 0, 
   "idx": 38, 
   "ignore_user_permissions": 0, 
   "ignore_xss_filter": 0, 
   "in_global_search": 0, 
   "in_list_view": 0, 
   "in_standard_filter": 0, 
   "insert_after": "formas_pago_sri", 
   "label": "Numero Autorizacion", 
   "modified": "2017-08-10 09:46:20.097707", 
   "modified_by": "Administrator", 
   "name": "Sales Invoice One-numero_autorizacion", 
   "no_copy": 0, 
   "options": null, 
   "owner": "Administrator", 
   "parent": null, 
   "parentfield": null, 
   "parenttype": null, 
   "permlevel": 0, 
   "precision": "", 
   "print_hide": 0, 
   "print_hide_if_no_value": 0, 
   "print_width": null, 
   "read_only": 1, 
   "report_hide": 0, 
   "reqd": 0, 
   "search_index": 0, 
   "unique": 0, 
   "width": null
  }, 
  {
   "_assign": null, 
   "_comments": null, 
   "_liked_by": null, 
   "_user_tags": null, 
   "allow_on_submit": 0, 
   "bold": 0, 
   "collapsible": 0, 
   "collapsible_depends_on": null, 
   "columns": 0, 
   "creation": "2017-08-10 09:45:37.121163", 
   "default": null, 
   "depends_on": null, 
   "description": null, 
   "docstatus": 0, 
   "dt": "Sales Invoice One", 
   "fieldname": "formas_pago_sri", 
   "fieldtype": "Link", 
   "hidden": 0, 
   "idx": 37, 
   "ignore_user_permissions": 0, 
   "ignore_xss_filter": 0, 
   "in_global_search": 0, 
   "in_list_view": 0, 
   "in_standard_filter": 0, 
   "insert_after": "electronic_invoice", 
   "label": "Formas Pago SRI", 
   "modified": "2017-08-10 09:45:37.121163", 
   "modified_by": "Administrator", 
   "name": "Sales Invoice One-formas_pago_sri", 
   "no_copy": 0, 
   "options": "Method Payment SRI", 
   "owner": "Administrator", 
   "parent": null, 
   "parentfield": null, 
   "parenttype": null, 
   "permlevel": 0, 
   "precision": "", 
   "print_hide": 0, 
   "print_hide_if_no_value": 0, 
   "print_width": null, 
   "read_only": 0, 
   "report_hide": 0, 
   "reqd": 0, 
   "search_index": 0, 
   "unique": 0, 
   "width": null
  }, 
  {
   "_assign": null, 
   "_comments": null, 
   "_liked_by": null, 
   "_user_tags": null, 
   "allow_on_submit": 0, 
   "bold": 0, 
   "collapsible": 0, 
   "collapsible_depends_on": null, 
   "columns": 0, 
   "creation": "2018-01-22 10:36:09.832325", 
   "default": null, 
   "depends_on": null, 
   "description": null, 
   "docstatus": 0, 
   "dt": "Sales Invoice Item One", 
   "fieldname": "check_caja_fras", 
   "fieldtype": "Check", 
   "hidden": 0, 
   "idx": 18, 
   "ignore_user_permissions": 0, 
   "ignore_xss_filter": 0, 
   "in_global_search": 0, 
   "in_list_view": 0, 
   "in_standard_filter": 0, 
   "insert_after": "cant_unidades_caja", 
   "label": "check_caja_fras", 
   "modified": "2018-01-22 10:36:09.832325", 
   "modified_by": "Administrator", 
   "name": "Sales Invoice Item One-check_caja_fras", 
   "no_copy": 0, 
   "options": null, 
   "owner": "Administrator", 
   "parent": null, 
   "parentfield": null, 
   "parenttype": null, 
   "permlevel": 0, 
   "precision": "", 
   "print_hide": 0, 
   "print_hide_if_no_value": 0, 
   "print_width": null, 
   "read_only": 1, 
   "report_hide": 0, 
   "reqd": 0, 
   "search_index": 0, 
   "unique": 0, 
   "width": null
  }, 
  {
   "_assign": null, 
   "_comments": null, 
   "_liked_by": null, 
   "_user_tags": null, 
   "allow_on_submit": 0, 
   "bold": 0, 
   "collapsible": 0, 
   "collapsible_depends_on": null, 
   "columns": 0, 
   "creation": "2018-01-22 10:11:07.908895", 
   "default": null, 
   "depends_on": null, 
   "description": null, 
   "docstatus": 0, 
   "dt": "Sales Invoice Item One", 
   "fieldname": "cant_unidades_caja", 
   "fieldtype": "Int", 
   "hidden": 0, 
   "idx": 17, 
   "ignore_user_permissions": 0, 
   "ignore_xss_filter": 0, 
   "in_global_search": 0, 
   "in_list_view": 0, 
   "in_standard_filter": 0, 
   "insert_after": "conversion_factor", 
   "label": "Unidades por Caja", 
   "modified": "2018-01-22 10:11:07.908895", 
   "modified_by": "Administrator", 
   "name": "Sales Invoice Item One-cant_unidades_caja", 
   "no_copy": 0, 
   "options": null, 
   "owner": "Administrator", 
   "parent": null, 
   "parentfield": null, 
   "parenttype": null, 
   "permlevel": 0, 
   "precision": "", 
   "print_hide": 0, 
   "print_hide_if_no_value": 0, 
   "print_width": null, 
   "read_only": 1, 
   "report_hide": 0, 
   "reqd": 0, 
   "search_index": 0, 
   "unique": 0, 
   "width": null
  }, 
  {
   "_assign": null, 
   "_comments": null, 
   "_liked_by": null, 
   "_user_tags": null, 
   "allow_on_submit": 0, 
   "bold": 0, 
   "collapsible": 0, 
   "collapsible_depends_on": null, 
   "columns": 0, 
   "creation": "2018-01-22 09:44:54.195184", 
   "default": null, 
   "depends_on": null, 
   "description": null, 
   "docstatus": 0, 
   "dt": "Sales Invoice Item One", 
   "fieldname": "salto_columna_caja", 
   "fieldtype": "Column Break", 
   "hidden": 0, 
   "idx": 27, 
   "ignore_user_permissions": 0, 
   "ignore_xss_filter": 0, 
   "in_global_search": 0, 
   "in_list_view": 0, 
   "in_standard_filter": 0, 
   "insert_after": "precio_3_con_imp", 
   "label": "", 
   "modified": "2018-01-22 09:44:54.195184", 
   "modified_by": "Administrator", 
   "name": "Sales Invoice Item One-salto_columna_caja", 
   "no_copy": 0, 
   "options": null, 
   "owner": "Administrator", 
   "parent": null, 
   "parentfield": null, 
   "parenttype": null, 
   "permlevel": 0, 
   "precision": "", 
   "print_hide": 0, 
   "print_hide_if_no_value": 0, 
   "print_width": null, 
   "read_only": 0, 
   "report_hide": 0, 
   "reqd": 0, 
   "search_index": 0, 
   "unique": 0, 
   "width": null
  }, 
  {
   "_assign": null, 
   "_comments": null, 
   "_liked_by": null, 
   "_user_tags": null, 
   "allow_on_submit": 0, 
   "bold": 0, 
   "collapsible": 0, 
   "collapsible_depends_on": null, 
   "columns": 0, 
   "creation": "2018-01-22 09:43:26.206514", 
   "default": null, 
   "depends_on": null, 
   "description": null, 
   "docstatus": 0, 
   "dt": "Sales Invoice Item One", 
   "fieldname": "precio_caja_3", 
   "fieldtype": "Currency", 
   "hidden": 0, 
   "idx": 30, 
   "ignore_user_permissions": 0, 
   "ignore_xss_filter": 0, 
   "in_global_search": 0, 
   "in_list_view": 0, 
   "in_standard_filter": 0, 
   "insert_after": "precio_caja_2", 
   "label": "Precio caja 3", 
   "modified": "2018-01-22 09:43:26.206514", 
   "modified_by": "Administrator", 
   "name": "Sales Invoice Item One-precio_caja_3", 
   "no_copy": 0, 
   "options": null, 
   "owner": "Administrator", 
   "parent": null, 
   "parentfield": null, 
   "parenttype": null, 
   "permlevel": 0, 
   "precision": "", 
   "print_hide": 0, 
   "print_hide_if_no_value": 0, 
   "print_width": null, 
   "read_only": 1, 
   "report_hide": 0, 
   "reqd": 0, 
   "search_index": 0, 
   "unique": 0, 
   "width": null
  }, 
  {
   "_assign": null, 
   "_comments": null, 
   "_liked_by": null, 
   "_user_tags": null, 
   "allow_on_submit": 0, 
   "bold": 0, 
   "collapsible": 0, 
   "collapsible_depends_on": null, 
   "columns": 0, 
   "creation": "2018-01-22 09:43:25.951524", 
   "default": null, 
   "depends_on": null, 
   "description": null, 
   "docstatus": 0, 
   "dt": "Sales Invoice Item One", 
   "fieldname": "precio_caja_2", 
   "fieldtype": "Currency", 
   "hidden": 0, 
   "idx": 29, 
   "ignore_user_permissions": 0, 
   "ignore_xss_filter": 0, 
   "in_global_search": 0, 
   "in_list_view": 0, 
   "in_standard_filter": 0, 
   "insert_after": "precio_caja_1", 
   "label": "Precio caja 2", 
   "modified": "2018-01-22 09:43:25.951524", 
   "modified_by": "Administrator", 
   "name": "Sales Invoice Item One-precio_caja_2", 
   "no_copy": 0, 
   "options": null, 
   "owner": "Administrator", 
   "parent": null, 
   "parentfield": null, 
   "parenttype": null, 
   "permlevel": 0, 
   "precision": "3", 
   "print_hide": 0, 
   "print_hide_if_no_value": 0, 
   "print_width": null, 
   "read_only": 1, 
   "report_hide": 0, 
   "reqd": 0, 
   "search_index": 0, 
   "unique": 0, 
   "width": null
  }, 
  {
   "_assign": null, 
   "_comments": null, 
   "_liked_by": null, 
   "_user_tags": null, 
   "allow_on_submit": 0, 
   "bold": 0, 
   "collapsible": 0, 
   "collapsible_depends_on": null, 
   "columns": 0, 
   "creation": "2018-01-22 09:43:25.413655", 
   "default": null, 
   "depends_on": null, 
   "description": null, 
   "docstatus": 0, 
   "dt": "Sales Invoice Item One", 
   "fieldname": "precio_caja_1", 
   "fieldtype": "Currency", 
   "hidden": 0, 
   "idx": 28, 
   "ignore_user_permissions": 0, 
   "ignore_xss_filter": 0, 
   "in_global_search": 0, 
   "in_list_view": 0, 
   "in_standard_filter": 0, 
   "insert_after": "salto_columna_caja", 
   "label": "Precio Caja 1", 
   "modified": "2018-01-22 09:43:25.413655", 
   "modified_by": "Administrator", 
   "name": "Sales Invoice Item One-precio_caja_1", 
   "no_copy": 0, 
   "options": null, 
   "owner": "Administrator", 
   "parent": null, 
   "parentfield": null, 
   "parenttype": null, 
   "permlevel": 0, 
   "precision": "3", 
   "print_hide": 0, 
   "print_hide_if_no_value": 0, 
   "print_width": null, 
   "read_only": 1, 
   "report_hide": 0, 
   "reqd": 0, 
   "search_index": 0, 
   "unique": 0, 
   "width": null
  }, 
  {
   "_assign": null, 
   "_comments": null, 
   "_liked_by": null, 
   "_user_tags": null, 
   "allow_on_submit": 0, 
   "bold": 0, 
   "collapsible": 0, 
   "collapsible_depends_on": null, 
   "columns": 0, 
   "creation": "2018-01-20 12:49:02.894703", 
   "default": null, 
   "depends_on": null, 
   "description": null, 
   "docstatus": 0, 
   "dt": "Sales Invoice Item One", 
   "fieldname": "descuento_total", 
   "fieldtype": "Currency", 
   "hidden": 0, 
   "idx": 39, 
   "ignore_user_permissions": 0, 
   "ignore_xss_filter": 0, 
   "in_global_search": 0, 
   "in_list_view": 0, 
   "in_standard_filter": 0, 
   "insert_after": "subtotal", 
   "label": "Descuento total", 
   "modified": "2018-01-20 12:49:02.894703", 
   "modified_by": "Administrator", 
   "name": "Sales Invoice Item One-descuento_total", 
   "no_copy": 0, 
   "options": null, 
   "owner": "Administrator", 
   "parent": null, 
   "parentfield": null, 
   "parenttype": null, 
   "permlevel": 0, 
   "precision": "3", 
   "print_hide": 0, 
   "print_hide_if_no_value": 0, 
   "print_width": null, 
   "read_only": 1, 
   "report_hide": 0, 
   "reqd": 0, 
   "search_index": 0, 
   "unique": 0, 
   "width": null
  }, 
  {
   "_assign": null, 
   "_comments": null, 
   "_liked_by": null, 
   "_user_tags": null, 
   "allow_on_submit": 0, 
   "bold": 0, 
   "collapsible": 0, 
   "collapsible_depends_on": null, 
   "columns": 0, 
   "creation": "2018-01-20 12:27:39.317618", 
   "default": null, 
   "depends_on": null, 
   "description": null, 
   "docstatus": 0, 
   "dt": "Sales Invoice Item One", 
   "fieldname": "precio_3_con_imp", 
   "fieldtype": "Currency", 
   "hidden": 0, 
   "idx": 26, 
   "ignore_user_permissions": 0, 
   "ignore_xss_filter": 0, 
   "in_global_search": 0, 
   "in_list_view": 0, 
   "in_standard_filter": 0, 
   "insert_after": "precio_2_con_imp", 
   "label": "precio 3 con imp", 
   "modified": "2018-01-20 12:27:39.317618", 
   "modified_by": "Administrator", 
   "name": "Sales Invoice Item One-precio_3_con_imp", 
   "no_copy": 0, 
   "options": null, 
   "owner": "Administrator", 
   "parent": null, 
   "parentfield": null, 
   "parenttype": null, 
   "permlevel": 0, 
   "precision": "3", 
   "print_hide": 0, 
   "print_hide_if_no_value": 0, 
   "print_width": null, 
   "read_only": 1, 
   "report_hide": 0, 
   "reqd": 0, 
   "search_index": 0, 
   "unique": 0, 
   "width": null
  }, 
  {
   "_assign": null, 
   "_comments": null, 
   "_liked_by": null, 
   "_user_tags": null, 
   "allow_on_submit": 0, 
   "bold": 0, 
   "collapsible": 0, 
   "collapsible_depends_on": null, 
   "columns": 0, 
   "creation": "2018-01-20 12:27:39.188272", 
   "default": null, 
   "depends_on": null, 
   "description": null, 
   "docstatus": 0, 
   "dt": "Sales Invoice Item One", 
   "fieldname": "precio_2_con_imp", 
   "fieldtype": "Currency", 
   "hidden": 0, 
   "idx": 25, 
   "ignore_user_permissions": 0, 
   "ignore_xss_filter": 0, 
   "in_global_search": 0, 
   "in_list_view": 0, 
   "in_standard_filter": 0, 
   "insert_after": "precio_1_con_imp", 
   "label": "precio 2 con imp", 
   "modified": "2018-01-20 12:27:39.188272", 
   "modified_by": "Administrator", 
   "name": "Sales Invoice Item One-precio_2_con_imp", 
   "no_copy": 0, 
   "options": null, 
   "owner": "Administrator", 
   "parent": null, 
   "parentfield": null, 
   "parenttype": null, 
   "permlevel": 0, 
   "precision": "3", 
   "print_hide": 0, 
   "print_hide_if_no_value": 0, 
   "print_width": null, 
   "read_only": 1, 
   "report_hide": 0, 
   "reqd": 0, 
   "search_index": 0, 
   "unique": 0, 
   "width": null
  }, 
  {
   "_assign": null, 
   "_comments": null, 
   "_liked_by": null, 
   "_user_tags": null, 
   "allow_on_submit": 0, 
   "bold": 0, 
   "collapsible": 0, 
   "collapsible_depends_on": null, 
   "columns": 0, 
   "creation": "2018-01-20 12:27:39.043864", 
   "default": null, 
   "depends_on": null, 
   "description": null, 
   "docstatus": 0, 
   "dt": "Sales Invoice Item One", 
   "fieldname": "precio_1_con_imp", 
   "fieldtype": "Currency", 
   "hidden": 0, 
   "idx": 24, 
   "ignore_user_permissions": 0, 
   "ignore_xss_filter": 0, 
   "in_global_search": 0, 
   "in_list_view": 0, 
   "in_standard_filter": 0, 
   "insert_after": "a", 
   "label": "precio 1 con imp", 
   "modified": "2018-01-20 12:27:39.043864", 
   "modified_by": "Administrator", 
   "name": "Sales Invoice Item One-precio_1_con_imp", 
   "no_copy": 0, 
   "options": null, 
   "owner": "Administrator", 
   "parent": null, 
   "parentfield": null, 
   "parenttype": null, 
   "permlevel": 0, 
   "precision": "3", 
   "print_hide": 0, 
   "print_hide_if_no_value": 0, 
   "print_width": null, 
   "read_only": 1, 
   "report_hide": 0, 
   "reqd": 0, 
   "search_index": 0, 
   "unique": 0, 
   "width": null
  }, 
  {
   "_assign": null, 
   "_comments": null, 
   "_liked_by": null, 
   "_user_tags": null, 
   "allow_on_submit": 0, 
   "bold": 0, 
   "collapsible": 0, 
   "collapsible_depends_on": null, 
   "columns": 0, 
   "creation": "2018-01-20 12:26:13.128624", 
   "default": null, 
   "depends_on": null, 
   "description": null, 
   "docstatus": 0, 
   "dt": "Sales Invoice Item One", 
   "fieldname": "a", 
   "fieldtype": "Column Break", 
   "hidden": 0, 
   "idx": 23, 
   "ignore_user_permissions": 0, 
   "ignore_xss_filter": 0, 
   "in_global_search": 0, 
   "in_list_view": 0, 
   "in_standard_filter": 0, 
   "insert_after": "precio_3_sin_imp", 
   "label": "", 
   "modified": "2018-01-20 12:26:13.128624", 
   "modified_by": "Administrator", 
   "name": "Sales Invoice Item One-a", 
   "no_copy": 0, 
   "options": null, 
   "owner": "Administrator", 
   "parent": null, 
   "parentfield": null, 
   "parenttype": null, 
   "permlevel": 0, 
   "precision": "", 
   "print_hide": 0, 
   "print_hide_if_no_value": 0, 
   "print_width": null, 
   "read_only": 0, 
   "report_hide": 0, 
   "reqd": 0, 
   "search_index": 0, 
   "unique": 0, 
   "width": null
  }, 
  {
   "_assign": null, 
   "_comments": null, 
   "_liked_by": null, 
   "_user_tags": null, 
   "allow_on_submit": 0, 
   "bold": 0, 
   "collapsible": 0, 
   "collapsible_depends_on": null, 
   "columns": 0, 
   "creation": "2018-01-20 12:21:54.513156", 
   "default": null, 
   "depends_on": null, 
   "description": null, 
   "docstatus": 0, 
   "dt": "Sales Invoice Item One", 
   "fieldname": "precio_3_sin_imp", 
   "fieldtype": "Currency", 
   "hidden": 0, 
   "idx": 22, 
   "ignore_user_permissions": 0, 
   "ignore_xss_filter": 0, 
   "in_global_search": 0, 
   "in_list_view": 0, 
   "in_standard_filter": 0, 
   "insert_after": "precio_2_sin_imp", 
   "label": "precio 3 sin imp", 
   "modified": "2018-01-20 12:21:54.513156", 
   "modified_by": "Administrator", 
   "name": "Sales Invoice Item One-precio_3_sin_imp", 
   "no_copy": 0, 
   "options": null, 
   "owner": "Administrator", 
   "parent": null, 
   "parentfield": null, 
   "parenttype": null, 
   "permlevel": 0, 
   "precision": "3", 
   "print_hide": 0, 
   "print_hide_if_no_value": 0, 
   "print_width": null, 
   "read_only": 1, 
   "report_hide": 0, 
   "reqd": 0, 
   "search_index": 0, 
   "unique": 0, 
   "width": null
  }, 
  {
   "_assign": null, 
   "_comments": null, 
   "_liked_by": null, 
   "_user_tags": null, 
   "allow_on_submit": 0, 
   "bold": 0, 
   "collapsible": 0, 
   "collapsible_depends_on": null, 
   "columns": 0, 
   "creation": "2018-01-20 12:21:54.372970", 
   "default": null, 
   "depends_on": null, 
   "description": null, 
   "docstatus": 0, 
   "dt": "Sales Invoice Item One", 
   "fieldname": "precio_2_sin_imp", 
   "fieldtype": "Currency", 
   "hidden": 0, 
   "idx": 21, 
   "ignore_user_permissions": 0, 
   "ignore_xss_filter": 0, 
   "in_global_search": 0, 
   "in_list_view": 0, 
   "in_standard_filter": 0, 
   "insert_after": "precio_1_sin_imp", 
   "label": "precio 2 sin imp", 
   "modified": "2018-01-20 12:21:54.372970", 
   "modified_by": "Administrator", 
   "name": "Sales Invoice Item One-precio_2_sin_imp", 
   "no_copy": 0, 
   "options": null, 
   "owner": "Administrator", 
   "parent": null, 
   "parentfield": null, 
   "parenttype": null, 
   "permlevel": 0, 
   "precision": "3", 
   "print_hide": 0, 
   "print_hide_if_no_value": 0, 
   "print_width": null, 
   "read_only": 1, 
   "report_hide": 0, 
   "reqd": 0, 
   "search_index": 0, 
   "unique": 0, 
   "width": null
  }, 
  {
   "_assign": null, 
   "_comments": null, 
   "_liked_by": null, 
   "_user_tags": null, 
   "allow_on_submit": 0, 
   "bold": 0, 
   "collapsible": 0, 
   "collapsible_depends_on": null, 
   "columns": 0, 
   "creation": "2018-01-20 12:21:54.233753", 
   "default": null, 
   "depends_on": null, 
   "description": null, 
   "docstatus": 0, 
   "dt": "Sales Invoice Item One", 
   "fieldname": "precio_1_sin_imp", 
   "fieldtype": "Currency", 
   "hidden": 0, 
   "idx": 20, 
   "ignore_user_permissions": 0, 
   "ignore_xss_filter": 0, 
   "in_global_search": 0, 
   "in_list_view": 0, 
   "in_standard_filter": 0, 
   "insert_after": "precios", 
   "label": "precio 1 sin imp", 
   "modified": "2018-01-20 12:21:54.233753", 
   "modified_by": "Administrator", 
   "name": "Sales Invoice Item One-precio_1_sin_imp", 
   "no_copy": 0, 
   "options": null, 
   "owner": "Administrator", 
   "parent": null, 
   "parentfield": null, 
   "parenttype": null, 
   "permlevel": 0, 
   "precision": "3", 
   "print_hide": 0, 
   "print_hide_if_no_value": 0, 
   "print_width": null, 
   "read_only": 1, 
   "report_hide": 0, 
   "reqd": 0, 
   "search_index": 0, 
   "unique": 0, 
   "width": null
  }, 
  {
   "_assign": null, 
   "_comments": null, 
   "_liked_by": null, 
   "_user_tags": null, 
   "allow_on_submit": 0, 
   "bold": 0, 
   "collapsible": 0, 
   "collapsible_depends_on": null, 
   "columns": 0, 
   "creation": "2018-01-20 12:21:54.136467", 
   "default": null, 
   "depends_on": null, 
   "description": null, 
   "docstatus": 0, 
   "dt": "Sales Invoice Item One", 
   "fieldname": "precios", 
   "fieldtype": "Section Break", 
   "hidden": 0, 
   "idx": 19, 
   "ignore_user_permissions": 0, 
   "ignore_xss_filter": 0, 
   "in_global_search": 0, 
   "in_list_view": 0, 
   "in_standard_filter": 0, 
   "insert_after": "check_caja_fras", 
   "label": "", 
   "modified": "2018-01-20 12:21:54.136467", 
   "modified_by": "Administrator", 
   "name": "Sales Invoice Item One-precios", 
   "no_copy": 0, 
   "options": null, 
   "owner": "Administrator", 
   "parent": null, 
   "parentfield": null, 
   "parenttype": null, 
   "permlevel": 0, 
   "precision": "", 
   "print_hide": 0, 
   "print_hide_if_no_value": 0, 
   "print_width": null, 
   "read_only": 0, 
   "report_hide": 0, 
   "reqd": 0, 
   "search_index": 0, 
   "unique": 0, 
   "width": null
  }, 
  {
   "_assign": null, 
   "_comments": null, 
   "_liked_by": null, 
   "_user_tags": null, 
   "allow_on_submit": 0, 
   "bold": 0, 
   "collapsible": 0, 
   "collapsible_depends_on": null, 
   "columns": 1, 
   "creation": "2018-01-20 11:48:25.545411", 
   "default": null, 
   "depends_on": null, 
   "description": null, 
   "docstatus": 0, 
   "dt": "Sales Invoice Item One", 
   "fieldname": "unidades", 
   "fieldtype": "Int", 
   "hidden": 0, 
   "idx": 12, 
   "ignore_user_permissions": 0, 
   "ignore_xss_filter": 0, 
   "in_global_search": 0, 
   "in_list_view": 1, 
   "in_standard_filter": 0, 
   "insert_after": "num_caja", 
   "label": "Unidades", 
   "modified": "2018-01-20 11:48:25.545411", 
   "modified_by": "Administrator", 
   "name": "Sales Invoice Item One-unidades", 
   "no_copy": 0, 
   "options": null, 
   "owner": "Administrator", 
   "parent": null, 
   "parentfield": null, 
   "parenttype": null, 
   "permlevel": 0, 
   "precision": "", 
   "print_hide": 0, 
   "print_hide_if_no_value": 0, 
   "print_width": null, 
   "read_only": 0, 
   "report_hide": 0, 
   "reqd": 0, 
   "search_index": 0, 
   "unique": 0, 
   "width": null
  }, 
  {
   "_assign": null, 
   "_comments": null, 
   "_liked_by": null, 
   "_user_tags": null, 
   "allow_on_submit": 0, 
   "bold": 0, 
   "collapsible": 0, 
   "collapsible_depends_on": null, 
   "columns": 1, 
   "creation": "2018-01-19 18:18:18.365218", 
   "default": "0", 
   "depends_on": null, 
   "description": null, 
   "docstatus": 0, 
   "dt": "Sales Invoice Item One", 
   "fieldname": "num_caja", 
   "fieldtype": "Int", 
   "hidden": 0, 
   "idx": 11, 
   "ignore_user_permissions": 0, 
   "ignore_xss_filter": 0, 
   "in_global_search": 0, 
   "in_list_view": 1, 
   "in_standard_filter": 0, 
   "insert_after": "qty", 
   "label": "# Cajas", 
   "modified": "2018-01-19 18:18:18.365218", 
   "modified_by": "Administrator", 
   "name": "Sales Invoice Item One-num_caja", 
   "no_copy": 0, 
   "options": null, 
   "owner": "Administrator", 
   "parent": null, 
   "parentfield": null, 
   "parenttype": null, 
   "permlevel": 0, 
   "precision": "", 
   "print_hide": 0, 
   "print_hide_if_no_value": 0, 
   "print_width": null, 
   "read_only": 0, 
   "report_hide": 0, 
   "reqd": 0, 
   "search_index": 0, 
   "unique": 0, 
   "width": null
  }, 
  {
   "_assign": null, 
   "_comments": null, 
   "_liked_by": null, 
   "_user_tags": null, 
   "allow_on_submit": 0, 
   "bold": 0, 
   "collapsible": 0, 
   "collapsible_depends_on": null, 
   "columns": 0, 
   "creation": "2018-01-17 15:39:20.491946", 
   "default": null, 
   "depends_on": null, 
   "description": null, 
   "docstatus": 0, 
   "dt": "Sales Invoice Item One", 
   "fieldname": "precio_descuento_fijado", 
   "fieldtype": "Currency", 
   "hidden": 1, 
   "idx": 34, 
   "ignore_user_permissions": 0, 
   "ignore_xss_filter": 0, 
   "in_global_search": 0, 
   "in_list_view": 0, 
   "in_standard_filter": 0, 
   "insert_after": "unit_price", 
   "label": "Precio con Descuento", 
   "modified": "2018-01-17 15:39:20.491946", 
   "modified_by": "Administrator", 
   "name": "Sales Invoice Item One-precio_descuento_fijado", 
   "no_copy": 0, 
   "options": null, 
   "owner": "Administrator", 
   "parent": null, 
   "parentfield": null, 
   "parenttype": null, 
   "permlevel": 0, 
   "precision": "3", 
   "print_hide": 0, 
   "print_hide_if_no_value": 0, 
   "print_width": null, 
   "read_only": 0, 
   "report_hide": 0, 
   "reqd": 0, 
   "search_index": 0, 
   "unique": 0, 
   "width": null
  }, 
  {
   "_assign": null, 
   "_comments": null, 
   "_liked_by": null, 
   "_user_tags": null, 
   "allow_on_submit": 0, 
   "bold": 0, 
   "collapsible": 0, 
   "collapsible_depends_on": null, 
   "columns": 1, 
   "creation": "2018-01-16 17:36:37.223314", 
   "default": null, 
   "depends_on": null, 
   "description": null, 
   "docstatus": 0, 
   "dt": "Sales Invoice Item One", 
   "fieldname": "caja", 
   "fieldtype": "Check", 
   "hidden": 1, 
   "idx": 9, 
   "ignore_user_permissions": 0, 
   "ignore_xss_filter": 0, 
   "in_global_search": 0, 
   "in_list_view": 0, 
   "in_standard_filter": 0, 
   "insert_after": "quantity_and_rate", 
   "label": "Caja", 
   "modified": "2018-01-16 17:36:37.223314", 
   "modified_by": "Administrator", 
   "name": "Sales Invoice Item One-caja", 
   "no_copy": 0, 
   "options": null, 
   "owner": "Administrator", 
   "parent": null, 
   "parentfield": null, 
   "parenttype": null, 
   "permlevel": 0, 
   "precision": "", 
   "print_hide": 0, 
   "print_hide_if_no_value": 0, 
   "print_width": null, 
   "read_only": 0, 
   "report_hide": 0, 
   "reqd": 0, 
   "search_index": 0, 
   "unique": 0, 
   "width": null
  }
 ], 
 "custom_perms": [
  {
   "_assign": null, 
   "_comments": null, 
   "_liked_by": null, 
   "_user_tags": null, 
   "amend": 1, 
   "apply_user_permissions": 0, 
   "cancel": 0, 
   "create": 1, 
   "creation": "2017-05-03 15:16:07.718036", 
   "delete": 1, 
   "docstatus": 0, 
   "email": 1, 
   "export": 1, 
   "idx": 1, 
   "if_owner": 0, 
   "import": 0, 
   "modified": "2017-09-12 12:31:19.209976", 
   "modified_by": "Administrator", 
   "name": "d866b89ec2", 
   "owner": "Administrator", 
   "parent": "Sales Invoice One", 
   "parentfield": "permissions", 
   "parenttype": "DocType", 
   "permlevel": 0, 
   "print": 1, 
   "read": 1, 
   "report": 1, 
   "role": "NODUX ONE", 
   "set_user_permissions": 0, 
   "share": 1, 
   "submit": 1, 
   "user_permission_doctypes": null, 
   "write": 1
  }
 ], 
 "doctype": "Sales Invoice One", 
 "property_setters": [
  {
   "_assign": null, 
   "_comments": null, 
   "_liked_by": null, 
   "_user_tags": null, 
   "creation": "2018-01-22 18:17:20.875716", 
   "default_value": null, 
   "doc_type": "Sales Invoice One", 
   "docstatus": 0, 
   "doctype_or_field": "DocType", 
   "field_name": null, 
   "idx": 0, 
   "modified": "2018-01-22 18:17:20.875716", 
   "modified_by": "Administrator", 
   "name": "Sales Invoice One-read_only_onload", 
   "owner": "Administrator", 
   "parent": null, 
   "parentfield": null, 
   "parenttype": null, 
   "property": "read_only_onload", 
   "property_type": "Check", 
   "value": null
  }, 
  {
   "_assign": null, 
   "_comments": null, 
   "_liked_by": null, 
   "_user_tags": null, 
   "creation": "2018-01-10 16:51:49.919449", 
   "default_value": null, 
   "doc_type": "Sales Invoice One", 
   "docstatus": 0, 
   "doctype_or_field": "DocField", 
   "field_name": "no_id", 
   "idx": 0, 
   "modified": "2018-01-10 16:51:49.919449", 
   "modified_by": "Administrator", 
   "name": "Sales Invoice One-no_id-hidden", 
   "owner": "Administrator", 
   "parent": null, 
   "parentfield": null, 
   "parenttype": null, 
   "property": "hidden", 
   "property_type": "Check", 
   "value": "0"
  }, 
  {
   "_assign": null, 
   "_comments": null, 
   "_liked_by": null, 
   "_user_tags": null, 
   "creation": "2017-09-15 17:41:00.647891", 
   "default_value": null, 
   "doc_type": "Sales Invoice One", 
   "docstatus": 0, 
   "doctype_or_field": "DocField", 
   "field_name": "naming_series", 
   "idx": 0, 
   "modified": "2017-09-18 09:22:13.112808", 
   "modified_by": "Administrator", 
   "name": "Sales Invoice One-naming_series-options", 
   "owner": "Administrator", 
   "parent": null, 
   "parentfield": null, 
   "parenttype": null, 
   "property": "options", 
   "property_type": "Text", 
   "value": "002-100-.#########\nNV-002-.#########"
  }, 
  {
   "_assign": null, 
   "_comments": null, 
   "_liked_by": null, 
   "_user_tags": null, 
   "creation": "2017-09-15 17:41:00.598060", 
   "default_value": null, 
   "doc_type": "Sales Invoice One", 
   "docstatus": 0, 
   "doctype_or_field": "DocField", 
   "field_name": "naming_series", 
   "idx": 0, 
   "modified": "2017-09-18 09:22:13.081493", 
   "modified_by": "Administrator", 
   "name": "Sales Invoice One-naming_series-default", 
   "owner": "Administrator", 
   "parent": null, 
   "parentfield": null, 
   "parenttype": null, 
   "property": "default", 
   "property_type": "Text", 
   "value": "002-100-.#########"
  }, 
  {
   "_assign": null, 
   "_comments": null, 
   "_liked_by": null, 
   "_user_tags": null, 
   "creation": "2018-01-22 18:27:52.975842", 
   "default_value": null, 
   "doc_type": "Sales Invoice Item One", 
   "docstatus": 0, 
   "doctype_or_field": "DocField", 
   "field_name": "conversion_factor", 
   "idx": 0, 
   "modified": "2018-01-22 18:27:52.975842", 
   "modified_by": "Administrator", 
   "name": "Sales Invoice Item One-conversion_factor-read_only", 
   "owner": "Administrator", 
   "parent": null, 
   "parentfield": null, 
   "parenttype": null, 
   "property": "read_only", 
   "property_type": "Check", 
   "value": "1"
  }, 
  {
   "_assign": null, 
   "_comments": null, 
   "_liked_by": null, 
   "_user_tags": null, 
   "creation": "2018-01-22 18:27:52.915978", 
   "default_value": null, 
   "doc_type": "Sales Invoice Item One", 
   "docstatus": 0, 
   "doctype_or_field": "DocType", 
   "field_name": null, 
   "idx": 0, 
   "modified": "2018-01-22 18:27:52.915978", 
   "modified_by": "Administrator", 
   "name": "Sales Invoice Item One-read_only_onload", 
   "owner": "Administrator", 
   "parent": null, 
   "parentfield": null, 
   "parenttype": null, 
   "property": "read_only_onload", 
   "property_type": "Check", 
   "value": null
  }, 
  {
   "_assign": null, 
   "_comments": null, 
   "_liked_by": null, 
   "_user_tags": null, 
   "creation": "2018-01-22 15:52:40.011786", 
   "default_value": null, 
   "doc_type": "Sales Invoice Item One", 
   "docstatus": 0, 
   "doctype_or_field": "DocField", 
   "field_name": "discount", 
   "idx": 0, 
   "modified": "2018-01-22 15:52:40.011786", 
   "modified_by": "Administrator", 
   "name": "Sales Invoice Item One-discount-read_only", 
   "owner": "Administrator", 
   "parent": null, 
   "parentfield": null, 
   "parenttype": null, 
   "property": "read_only", 
   "property_type": "Check", 
   "value": "1"
  }, 
  {
   "_assign": null, 
   "_comments": null, 
   "_liked_by": null, 
   "_user_tags": null, 
   "creation": "2018-01-22 15:50:26.701415", 
   "default_value": null, 
   "doc_type": "Sales Invoice Item One", 
   "docstatus": 0, 
   "doctype_or_field": "DocField", 
   "field_name": "unit_price_out_dcto", 
   "idx": 0, 
   "modified": "2018-01-22 15:50:26.701415", 
   "modified_by": "Administrator", 
   "name": "Sales Invoice Item One-unit_price_out_dcto-hidden", 
   "owner": "Administrator", 
   "parent": null, 
   "parentfield": null, 
   "parenttype": null, 
   "property": "hidden", 
   "property_type": "Check", 
   "value": "1"
  }, 
  {
   "_assign": null, 
   "_comments": null, 
   "_liked_by": null, 
   "_user_tags": null, 
   "creation": "2018-01-20 12:45:39.717903", 
   "default_value": null, 
   "doc_type": "Sales Invoice Item One", 
   "docstatus": 0, 
   "doctype_or_field": "DocField", 
   "field_name": "stock_uom", 
   "idx": 0, 
   "modified": "2018-01-20 12:45:39.717903", 
   "modified_by": "Administrator", 
   "name": "Sales Invoice Item One-stock_uom-hidden", 
   "owner": "Administrator", 
   "parent": null, 
   "parentfield": null, 
   "parenttype": null, 
   "property": "hidden", 
   "property_type": "Check", 
   "value": "1"
  }, 
  {
   "_assign": null, 
   "_comments": null, 
   "_liked_by": null, 
   "_user_tags": null, 
   "creation": "2018-01-20 12:09:35.391454", 
   "default_value": null, 
   "doc_type": "Sales Invoice Item One", 
   "docstatus": 0, 
   "doctype_or_field": "DocField", 
   "field_name": "subtotal_imp", 
   "idx": 0, 
   "modified": "2018-01-20 12:09:35.391454", 
   "modified_by": "Administrator", 
   "name": "Sales Invoice Item One-subtotal_imp-read_only", 
   "owner": "Administrator", 
   "parent": null, 
   "parentfield": null, 
   "parenttype": null, 
   "property": "read_only", 
   "property_type": "Check", 
   "value": "1"
  }, 
  {
   "_assign": null, 
   "_comments": null, 
   "_liked_by": null, 
   "_user_tags": null, 
   "creation": "2018-01-20 12:09:35.387505", 
   "default_value": null, 
   "doc_type": "Sales Invoice Item One", 
   "docstatus": 0, 
   "doctype_or_field": "DocField", 
   "field_name": "qty", 
   "idx": 0, 
   "modified": "2018-01-20 12:09:35.387505", 
   "modified_by": "Administrator", 
   "name": "Sales Invoice Item One-qty-read_only", 
   "owner": "Administrator", 
   "parent": null, 
   "parentfield": null, 
   "parenttype": null, 
   "property": "read_only", 
   "property_type": "Check", 
   "value": "1"
  }, 
  {
   "_assign": null, 
   "_comments": null, 
   "_liked_by": null, 
   "_user_tags": null, 
   "creation": "2018-01-20 11:55:32.840525", 
   "default_value": null, 
   "doc_type": "Sales Invoice Item One", 
   "docstatus": 0, 
   "doctype_or_field": "DocField", 
   "field_name": "subtotal", 
   "idx": 0, 
   "modified": "2018-01-20 11:55:32.840525", 
   "modified_by": "Administrator", 
   "name": "Sales Invoice Item One-subtotal-columns", 
   "owner": "Administrator", 
   "parent": null, 
   "parentfield": null, 
   "parenttype": null, 
   "property": "columns", 
   "property_type": "Int", 
   "value": "1"
  }, 
  {
   "_assign": null, 
   "_comments": null, 
   "_liked_by": null, 
   "_user_tags": null, 
   "creation": "2018-01-20 11:54:25.860403", 
   "default_value": null, 
   "doc_type": "Sales Invoice Item One", 
   "docstatus": 0, 
   "doctype_or_field": "DocField", 
   "field_name": "item_name", 
   "idx": 0, 
   "modified": "2018-01-20 11:54:25.860403", 
   "modified_by": "Administrator", 
   "name": "Sales Invoice Item One-item_name-columns", 
   "owner": "Administrator", 
   "parent": null, 
   "parentfield": null, 
   "parenttype": null, 
   "property": "columns", 
   "property_type": "Int", 
   "value": "3"
  }, 
  {
   "_assign": null, 
   "_comments": null, 
   "_liked_by": null, 
   "_user_tags": null, 
   "creation": "2018-01-19 18:42:11.313324", 
   "default_value": null, 
   "doc_type": "Sales Invoice Item One", 
   "docstatus": 0, 
   "doctype_or_field": "DocField", 
   "field_name": "subtotal_imp", 
   "idx": 0, 
   "modified": "2018-01-19 18:42:11.313324", 
   "modified_by": "Administrator", 
   "name": "Sales Invoice Item One-subtotal_imp-columns", 
   "owner": "Administrator", 
   "parent": null, 
   "parentfield": null, 
   "parenttype": null, 
   "property": "columns", 
   "property_type": "Int", 
   "value": "2"
  }, 
  {
   "_assign": null, 
   "_comments": null, 
   "_liked_by": null, 
   "_user_tags": null, 
   "creation": "2018-01-17 16:33:00.330903", 
   "default_value": null, 
   "doc_type": "Sales Invoice Item One", 
   "docstatus": 0, 
   "doctype_or_field": "DocField", 
   "field_name": "subtotal", 
   "idx": 0, 
   "modified": "2018-01-17 16:33:00.330903", 
   "modified_by": "Administrator", 
   "name": "Sales Invoice Item One-subtotal-precision", 
   "owner": "Administrator", 
   "parent": null, 
   "parentfield": null, 
   "parenttype": null, 
   "property": "precision", 
   "property_type": "Select", 
   "value": "3"
  }, 
  {
   "_assign": null, 
   "_comments": null, 
   "_liked_by": null, 
   "_user_tags": null, 
   "creation": "2018-01-17 16:28:41.939043", 
   "default_value": null, 
   "doc_type": "Sales Invoice Item One", 
   "docstatus": 0, 
   "doctype_or_field": "DocField", 
   "field_name": "unit_price_with_tax", 
   "idx": 0, 
   "modified": "2018-01-17 16:28:41.939043", 
   "modified_by": "Administrator", 
   "name": "Sales Invoice Item One-unit_price_with_tax-precision", 
   "owner": "Administrator", 
   "parent": null, 
   "parentfield": null, 
   "parenttype": null, 
   "property": "precision", 
   "property_type": "Select", 
   "value": "4"
  }, 
  {
   "_assign": null, 
   "_comments": null, 
   "_liked_by": null, 
   "_user_tags": null, 
   "creation": "2018-01-17 16:28:18.941544", 
   "default_value": null, 
   "doc_type": "Sales Invoice Item One", 
   "docstatus": 0, 
   "doctype_or_field": "DocField", 
   "field_name": "unit_price", 
   "idx": 0, 
   "modified": "2018-01-17 16:28:18.941544", 
   "modified_by": "Administrator", 
   "name": "Sales Invoice Item One-unit_price-precision", 
   "owner": "Administrator", 
   "parent": null, 
   "parentfield": null, 
   "parenttype": null, 
   "property": "precision", 
   "property_type": "Select", 
   "value": "3"
  }, 
  {
   "_assign": null, 
   "_comments": null, 
   "_liked_by": null, 
   "_user_tags": null, 
   "creation": "2018-01-17 16:27:22.301120", 
   "default_value": null, 
   "doc_type": "Sales Invoice Item One", 
   "docstatus": 0, 
   "doctype_or_field": "DocField", 
   "field_name": "unit_price_out_dcto", 
   "idx": 0, 
   "modified": "2018-01-17 16:27:22.301120", 
   "modified_by": "Administrator", 
   "name": "Sales Invoice Item One-unit_price_out_dcto-precision", 
   "owner": "Administrator", 
   "parent": null, 
   "parentfield": null, 
   "parenttype": null, 
   "property": "precision", 
   "property_type": "Select", 
   "value": "4"
  }, 
  {
   "_assign": null, 
   "_comments": null, 
   "_liked_by": null, 
   "_user_tags": null, 
   "creation": "2018-01-17 11:59:43.165002", 
   "default_value": null, 
   "doc_type": "Sales Invoice Item One", 
   "docstatus": 0, 
   "doctype_or_field": "DocField", 
   "field_name": "subtotal_imp", 
   "idx": 0, 
   "modified": "2018-01-17 11:59:43.165002", 
   "modified_by": "Administrator", 
   "name": "Sales Invoice Item One-subtotal_imp-in_list_view", 
   "owner": "Administrator", 
   "parent": null, 
   "parentfield": null, 
   "parenttype": null, 
   "property": "in_list_view", 
   "property_type": "Check", 
   "value": "1"
  }, 
  {
   "_assign": null, 
   "_comments": null, 
   "_liked_by": null, 
   "_user_tags": null, 
   "creation": "2018-01-17 11:30:22.718663", 
   "default_value": null, 
   "doc_type": "Sales Invoice Item One", 
   "docstatus": 0, 
   "doctype_or_field": "DocField", 
   "field_name": "unit_price_out_dcto", 
   "idx": 0, 
   "modified": "2018-01-17 11:30:22.718663", 
   "modified_by": "Administrator", 
   "name": "Sales Invoice Item One-unit_price_out_dcto-in_list_view", 
   "owner": "Administrator", 
   "parent": null, 
   "parentfield": null, 
   "parenttype": null, 
   "property": "in_list_view", 
   "property_type": "Check", 
   "value": "0"
  }, 
  {
   "_assign": null, 
   "_comments": null, 
   "_liked_by": null, 
   "_user_tags": null, 
   "creation": "2018-01-16 17:39:18.468717", 
   "default_value": null, 
   "doc_type": "Sales Invoice Item One", 
   "docstatus": 0, 
   "doctype_or_field": "DocField", 
   "field_name": "unit_price_out_dcto", 
   "idx": 0, 
   "modified": "2018-01-16 17:39:18.468717", 
   "modified_by": "Administrator", 
   "name": "Sales Invoice Item One-unit_price_out_dcto-columns", 
   "owner": "Administrator", 
   "parent": null, 
   "parentfield": null, 
   "parenttype": null, 
   "property": "columns", 
   "property_type": "Int", 
   "value": "2"
  }, 
  {
   "_assign": null, 
   "_comments": null, 
   "_liked_by": null, 
   "_user_tags": null, 
   "creation": "2018-01-16 17:39:18.460025", 
   "default_value": null, 
   "doc_type": "Sales Invoice Item One", 
   "docstatus": 0, 
   "doctype_or_field": "DocField", 
   "field_name": "item_code", 
   "idx": 0, 
   "modified": "2018-01-16 17:39:18.460025", 
   "modified_by": "Administrator", 
   "name": "Sales Invoice Item One-item_code-columns", 
   "owner": "Administrator", 
   "parent": null, 
   "parentfield": null, 
   "parenttype": null, 
   "property": "columns", 
   "property_type": "Int", 
   "value": "1"
  }, 
  {
   "_assign": null, 
   "_comments": null, 
   "_liked_by": null, 
   "_user_tags": null, 
   "creation": "2018-01-16 17:38:25.490489", 
   "default_value": null, 
   "doc_type": "Sales Invoice Item One", 
   "docstatus": 0, 
   "doctype_or_field": "DocField", 
   "field_name": "subtotal", 
   "idx": 0, 
   "modified": "2018-01-16 17:38:25.490489", 
   "modified_by": "Administrator", 
   "name": "Sales Invoice Item One-subtotal-width", 
   "owner": "Administrator", 
   "parent": null, 
   "parentfield": null, 
   "parenttype": null, 
   "property": "width", 
   "property_type": "Data", 
   "value": ""
  }, 
  {
   "_assign": null, 
   "_comments": null, 
   "_liked_by": null, 
   "_user_tags": null, 
   "creation": "2018-01-16 16:17:57.941088", 
   "default_value": null, 
   "doc_type": "Sales Invoice Item One", 
   "docstatus": 0, 
   "doctype_or_field": "DocField", 
   "field_name": "description", 
   "idx": 0, 
   "modified": "2018-01-16 16:17:57.941088", 
   "modified_by": "Administrator", 
   "name": "Sales Invoice Item One-description-reqd", 
   "owner": "Administrator", 
   "parent": null, 
   "parentfield": null, 
   "parenttype": null, 
   "property": "reqd", 
   "property_type": "Check", 
   "value": "0"
  }
 ], 
 "sync_on_migrate": 1
}